127.0.0.1 - - [12/Dec/2023:22:42:05 +0530] "GET / HTTP/1.1" 404 752
0:0:0:0:0:0:0:1 - - [12/Dec/2023:22:42:07 +0530] "GET /InventoryManagement/ HTTP/1.1" 200 361
0:0:0:0:0:0:0:1 - - [12/Dec/2023:22:42:19 +0530] "GET /InventoryManagement/login?username=admin&password=admin&submit=Login HTTP/1.1" 404 683
127.0.0.1 - - [12/Dec/2023:22:43:29 +0530] "GET / HTTP/1.1" 404 752
0:0:0:0:0:0:0:1 - - [12/Dec/2023:22:43:31 +0530] "GET /InventoryManagement/ HTTP/1.1" 200 368
0:0:0:0:0:0:0:1 - - [12/Dec/2023:22:43:37 +0530] "GET /InventoryManagement/loginprocess?username=admin&password=admin&submit=Login HTTP/1.1" 302 -
0:0:0:0:0:0:0:1 - - [12/Dec/2023:22:43:38 +0530] "GET /InventoryManagement/productform HTTP/1.1" 200 876
127.0.0.1 - - [12/Dec/2023:22:52:03 +0530] "GET / HTTP/1.1" 404 752
0:0:0:0:0:0:0:1 - - [12/Dec/2023:22:52:05 +0530] "GET /InventoryManagement/ HTTP/1.1" 200 419
0:0:0:0:0:0:0:1 - - [12/Dec/2023:22:52:12 +0530] "GET /InventoryManagement/loginprocess?username=asdasd&password=asdasdasd&submit=Login HTTP/1.1" 302 -
0:0:0:0:0:0:0:1 - - [12/Dec/2023:22:52:13 +0530] "GET /InventoryManagement/viewproducts HTTP/1.1" 200 557
127.0.0.1 - - [12/Dec/2023:22:56:20 +0530] "GET / HTTP/1.1" 404 752
0:0:0:0:0:0:0:1 - - [12/Dec/2023:22:56:21 +0530] "GET /InventoryManagement/ HTTP/1.1" 200 419
0:0:0:0:0:0:0:1 - - [12/Dec/2023:22:56:27 +0530] "GET /InventoryManagement/loginprocess?username=admin&password=admin&submit=Login HTTP/1.1" 302 -
0:0:0:0:0:0:0:1 - - [12/Dec/2023:22:56:27 +0530] "GET /InventoryManagement/productform HTTP/1.1" 200 876
0:0:0:0:0:0:0:1 - - [12/Dec/2023:22:56:59 +0530] "POST /InventoryManagement/saveproducts HTTP/1.1" 302 -
0:0:0:0:0:0:0:1 - - [12/Dec/2023:22:57:00 +0530] "GET /InventoryManagement/productlist HTTP/1.1" 200 773
0:0:0:0:0:0:0:1 - - [12/Dec/2023:22:57:25 +0530] "GET /InventoryManagement/ HTTP/1.1" 200 419
0:0:0:0:0:0:0:1 - - [12/Dec/2023:22:57:31 +0530] "GET /InventoryManagement/loginprocess?username=muthu&password=muthu&submit=Login HTTP/1.1" 302 -
0:0:0:0:0:0:0:1 - - [12/Dec/2023:22:57:32 +0530] "GET /InventoryManagement/viewproducts HTTP/1.1" 200 656
0:0:0:0:0:0:0:1 - - [12/Dec/2023:22:58:06 +0530] "GET /InventoryManagement/deleteproduct/ HTTP/1.1" 404 683
0:0:0:0:0:0:0:1 - - [12/Dec/2023:22:59:00 +0530] "GET /InventoryManagement/productlist HTTP/1.1" 200 779
0:0:0:0:0:0:0:1 - - [12/Dec/2023:22:59:12 +0530] "GET /InventoryManagement/deleteproduct/111 HTTP/1.1" 302 -
0:0:0:0:0:0:0:1 - - [12/Dec/2023:22:59:12 +0530] "GET /InventoryManagement/productlist HTTP/1.1" 200 582
127.0.0.1 - - [12/Dec/2023:23:04:21 +0530] "GET / HTTP/1.1" 404 752
0:0:0:0:0:0:0:1 - - [12/Dec/2023:23:04:22 +0530] "GET /InventoryManagement/ HTTP/1.1" 200 419
0:0:0:0:0:0:0:1 - - [12/Dec/2023:23:04:35 +0530] "GET /InventoryManagement/loginprocess?username=admin&password=admin&submit=Login HTTP/1.1" 302 -
0:0:0:0:0:0:0:1 - - [12/Dec/2023:23:04:36 +0530] "GET /InventoryManagement/productform HTTP/1.1" 200 869
127.0.0.1 - - [12/Dec/2023:23:05:42 +0530] "GET / HTTP/1.1" 404 752
0:0:0:0:0:0:0:1 - - [12/Dec/2023:23:05:43 +0530] "GET /InventoryManagement/ HTTP/1.1" 200 419
0:0:0:0:0:0:0:1 - - [12/Dec/2023:23:05:54 +0530] "GET /InventoryManagement/loginprocess?username=admin&password=admin&submit=Login HTTP/1.1" 302 -
0:0:0:0:0:0:0:1 - - [12/Dec/2023:23:05:54 +0530] "GET /InventoryManagement/productform HTTP/1.1" 200 869
127.0.0.1 - - [12/Dec/2023:23:09:17 +0530] "GET / HTTP/1.1" 404 752
0:0:0:0:0:0:0:1 - - [12/Dec/2023:23:09:18 +0530] "GET /InventoryManagement/ HTTP/1.1" 200 419
0:0:0:0:0:0:0:1 - - [12/Dec/2023:23:09:19 +0530] "GET /favicon.ico HTTP/1.1" 404 763
0:0:0:0:0:0:0:1 - - [12/Dec/2023:23:09:25 +0530] "GET /InventoryManagement/loginprocess?username=admin&password=admin&submit=Login HTTP/1.1" 302 -
0:0:0:0:0:0:0:1 - - [12/Dec/2023:23:09:25 +0530] "GET /InventoryManagement/productform HTTP/1.1" 200 869
